{"failedCount":0,"prefixedPath":"src\/test\/java\/com\/regresIn\/features\/regresIn\/Get_ListUsers.feature","packageQualifiedName":"src.test.java.com.regresIn.features.regresIn.Get_ListUsers","loopIndex":-1,"relativePath":"src\/test\/java\/com\/regresIn\/features\/regresIn\/Get_ListUsers.feature","scenarioResults":[{"sectionIndex":0,"stepResults":[{"result":{"nanos":2542400,"millis":2.5424,"status":"passed"},"step":{"background":true,"line":3,"prefix":"Given","index":0,"text":"url regresIn"}},{"result":{"nanos":828400,"millis":0.8284,"status":"passed"},"step":{"line":6,"prefix":"And","index":0,"text":"path \"\/api\/users\""}},{"result":{"nanos":1003300,"millis":1.0033,"status":"passed"},"step":{"line":7,"prefix":"And","index":1,"text":"param page = \"2\""}},{"result":{"nanos":966118100,"millis":966.1181,"status":"passed"},"step":{"line":8,"prefix":"When","index":2,"text":"method GET"},"stepLog":"15:54:58.059 request:\n1 > GET https:\/\/reqres.in\/api\/users?page=2\n1 > Host: reqres.in\n1 > Connection: Keep-Alive\n1 > User-Agent: Apache-HttpClient\/4.5.13 (Java\/11.0.9)\n1 > Accept-Encoding: gzip,deflate\n\n\n15:54:58.793 response time in milliseconds: 687\n1 < 200\n1 < Date: Sun, 18 Sep 2022 14:54:59 GMT\n1 < Content-Type: application\/json; charset=utf-8\n1 < Transfer-Encoding: chunked\n1 < Connection: keep-alive\n1 < X-Powered-By: Express\n1 < Access-Control-Allow-Origin: *\n1 < Etag: W\/\"406-ut0vzoCuidvyMf8arZpMpJ6ZRDw\"\n1 < Via: 1.1 vegur\n1 < Cache-Control: max-age=14400\n1 < CF-Cache-Status: HIT\n1 < Age: 1654\n1 < Report-To: {\"endpoints\":[{\"url\":\"https:\\\/\\\/a.nel.cloudflare.com\\\/report\\\/v3?s=Epiejb1TZOPoahlNiK7rL5%2FKjJ0o%2FX%2Fhrd1CG7I17PcIY9Y3aggCneooA2KiWoUj6NE6Fgu0R2igLTnWhrfZe2X5mga8ro6KGw%2Bc2D%2BVXcdbLF8VpN8sFT8TWw%3D%3D\"}],\"group\":\"cf-nel\",\"max_age\":604800}\n1 < NEL: {\"success_fraction\":0,\"report_to\":\"cf-nel\",\"max_age\":604800}\n1 < Vary: Accept-Encoding\n1 < Server: cloudflare\n1 < CF-RAY: 74caeb834f94d20c-MAN\n{\n  \"page\": 2,\n  \"per_page\": 6,\n  \"total\": 12,\n  \"total_pages\": 2,\n  \"data\": [\n    {\n      \"id\": 7,\n      \"email\": \"michael.lawson@reqres.in\",\n      \"first_name\": \"Michael\",\n      \"last_name\": \"Lawson\",\n      \"avatar\": \"https:\/\/reqres.in\/img\/faces\/7-image.jpg\"\n    },\n    {\n      \"id\": 8,\n      \"email\": \"lindsay.ferguson@reqres.in\",\n      \"first_name\": \"Lindsay\",\n      \"last_name\": \"Ferguson\",\n      \"avatar\": \"https:\/\/reqres.in\/img\/faces\/8-image.jpg\"\n    },\n    {\n      \"id\": 9,\n      \"email\": \"tobias.funke@reqres.in\",\n      \"first_name\": \"Tobias\",\n      \"last_name\": \"Funke\",\n      \"avatar\": \"https:\/\/reqres.in\/img\/faces\/9-image.jpg\"\n    },\n    {\n      \"id\": 10,\n      \"email\": \"byron.fields@reqres.in\",\n      \"first_name\": \"Byron\",\n      \"last_name\": \"Fields\",\n      \"avatar\": \"https:\/\/reqres.in\/img\/faces\/10-image.jpg\"\n    },\n    {\n      \"id\": 11,\n      \"email\": \"george.edwards@reqres.in\",\n      \"first_name\": \"George\",\n      \"last_name\": \"Edwards\",\n      \"avatar\": \"https:\/\/reqres.in\/img\/faces\/11-image.jpg\"\n    },\n    {\n      \"id\": 12,\n      \"email\": \"rachel.howell@reqres.in\",\n      \"first_name\": \"Rachel\",\n      \"last_name\": \"Howell\",\n      \"avatar\": \"https:\/\/reqres.in\/img\/faces\/12-image.jpg\"\n    }\n  ],\n  \"support\": {\n    \"url\": \"https:\/\/reqres.in\/#support-heading\",\n    \"text\": \"To keep ReqRes free, contributions towards server costs are appreciated!\"\n  }\n}\n\n\n"},{"result":{"nanos":44700,"millis":0.0447,"status":"passed"},"step":{"line":9,"prefix":"Then","index":3,"text":"status 200"}}],"executorName":"main","line":5,"name":"user should be able to get user list","description":"","durationMillis":970.5369,"startTime":1663512896730,"failed":false,"refId":"[1:5]","endTime":1663512898793,"exampleIndex":-1}],"callDepth":0,"name":"user list","description":"","resultDate":"2022-09-18 03:54:58 pm","durationMillis":970.5369,"passedCount":1}